{
  "name": "Initial Tour Builder",
  "name-lang": {
    "es-ES": "Recorrer la app",
    "en-US": "Initial Tour Builder"
  },
  "identifier": "tourbuilder",
  "description": {
      "es-ES": "Mejora la experiencia de tus usuarios con un tour al iniciar la app.",
      "en-US": "Improve the user experience with a tour when starting the app."
  },
  "documentation": {
      "es-ES": "http://resources.kingofapp.com/services/tourbuilder/docs/es_ES.md",
      "en-US": "http://resources.kingofapp.com/services/tourbuilder/docs/en_US.md"
  },
  "descriptionShort": {
      "es-ES": "Tour al iniciar la app",
      "en-US": "Tour when starting the app"
  },
  "type": "A",
  "version": "1.1.0",
  "author": "King of App",
  "category": ["others"],
  "price": 0,
  "subscription": false,
  "canContain": false,
  "platforms": ["android", "ios", "windows"],
  "vendor": {
      "tourbuilder": "http://resources.kingofapp.com/services/tourbuilder/service.js"
  },
  "scope": {
      "default": "def",
      "code": "<link rel='stylesheet' href='https://cdnjs.cloudflare.com/ajax/libs/materialize/1.0.0/css/materialize.min.css'> \n      <link rel='stylesheet' href='https://cdnjs.cloudflare.com/ajax/libs/OwlCarousel2/2.2.1/assets/owl.carousel.min.css'\n          integrity='sha512-GqP/pjlymwlPb6Vd7KmT5YbapvowpteRq9ffvufiXYZp0YpMTtR9tI6/v3U3hFi1N9MQmXum/yBfELxoY+S1Mw=='\n          crossorigin='anonymous' referrerpolicy='no-referrer' />\n      <link rel='stylesheet' href='https://cdnjs.cloudflare.com/ajax/libs/OwlCarousel2/2.2.1/assets/owl.theme.default.min.css'\n          integrity='sha512-GQz6nApkdT7cWN1Cnj/DOAkyfzNOoq+txIhSEK1G4HTCbSHVGpsrvirptbAP60Nu7qbw0+XlAAPGUmLU2L5l4g=='\n          crossorigin='anonymous' referrerpolicy='no-referrer' />\n      <link rel='stylesheet' href='https://maxcdn.bootstrapcdn.com/font-awesome/4.7.0/css/font-awesome.min.css'>\n      <style>\n          .demo .slide-demo {\n              margin-top: 0;\n              height: 100vh;\n          }\n      \n          .demo .slide-demo .slide-content {\n              height: 100vh;\n          }\n      \n          .demo .slide .slide-content {\n              height: 100vh;\n              background: #fff;\n          }\n      \n          .demo .slide .slide-content .mask {\n              background-color: rgba(11, 10, 10, 0.6);\n              position: absolute;\n              width: 100%;\n              top: 0;\n              left: 0;\n              right: 0;\n              bottom: 0;\n          }\n      \n          .demo .slide .slide-content img {\n              width: 100%;\n              height: 100%;\n              object-fit: cover;\n          }\n      \n          .demo .slide-demo .slide-content .caption {\n              top: 29%;\n          }\n      \n          .demo .slide .slide-content .text-center {\n              text-align: center;\n          }\n      \n          .demo .slide .slide-content .caption {\n              position: absolute;\n              top: 21%;\n              margin: 0 auto;\n              left: 0;\n              right: 0;\n              padding: 15px;\n          }\n      \n          .demo .slide .slide-content .caption h2 {\n              font-size: 22px;\n              color: #fff;\n              line-height: 110%;\n              margin: 0;\n              font-family: 'Roboto', sans-serif;\n              font-weight: 500;\n          }\n      \n          .demo .slide .slide-content .caption p {\n              margin: 8px 0;\n              color: #fff;\n          }\n      \n          .demo .slide .slide-content .caption button {\n              padding: 3px 8px;\n              font-size: 12px;\n              margin-top: 5px;\n              background-color: #e53935;\n              color: #fff;\n              border: 0;\n              padding: 7px 12px;\n              border-radius: 2px;\n              cursor: pointer;\n              font-size: 12px;\n              box-shadow: 0px 2px 10px rgb(0 0 0 / 10%);\n          }\n      \n          .demo .slide .slide-content .caption button a {\n              color: #fff;\n          }\n      \n          .demo .slide .owl-theme .owl-nav.disabled+.owl-dots {\n              position: relative;\n              top: -35px;\n              margin-bottom: -36px;\n          }\n      \n          .demo .owl-theme .owl-dots .owl-dot.active span {\n              background: #e53935 !important;\n          }\n      \n          .demo .slide .owl-theme .owl-dots .owl-dot span {\n              width: 7px;\n              height: 7px;\n              background-color: #fff;\n          }\n      \n          .demo .owl-theme .owl-dots .owl-dot {\n              display: inline-block;\n              zoom: 1;\n          }\n      </style>\n      <div data-name='demo' class='demo'>\n          <div class='slide slide-demo'>\n              <div class='slide-show owl-carousel owl-theme'>\n                  <div class='slide-content'>\n                      <div class='mask'></div>\n                      <img src='https://s3.eu-west-1.amazonaws.com/resources.kingofapp.com/services/tourbuilder/images/tour1.png' alt=''>\n                      <div class='caption text-center'>\n                          <h2>Welcome to Creative Flyors</h2>\n                          <p>Mobile Templates</p>\n                      </div>\n                  </div>\n                  <div class='slide-content'>\n                      <div class='mask'></div>\n                      <img src='https://s3.eu-west-1.amazonaws.com/resources.kingofapp.com/services/tourbuilder/images/tour2.png' alt=''>\n                      <div class='caption center'>\n                          <h2>Using The Good Design </h2>\n                          <p>Mobile Templates</p>\n                      </div>\n                  </div>\n                  <div class='slide-content' onclick='closeFrame()'>\n                      <div class='mask'></div>\n                      <img src='https://s3.eu-west-1.amazonaws.com/resources.kingofapp.com/services/tourbuilder/images/tour3.png' alt=''>\n                      <div class='caption text-center'>\n                          <h2>Great & Easy to Customize</h2>\n                          <p>Mobile Templates</p>\n                      </div>\n                  </div>\n            </div>\n          </div>\n      </div>\n      <script src='https://cdnjs.cloudflare.com/ajax/libs/jquery/3.2.1/jquery.min.js'\n          integrity='sha512-3P8rXCuGJdNZOnUx/03c1jOTnMn3rP63nBip5gOP2qmUh5YAdVAvFZ1E+QLZZbC1rtMrQb+mah3AfYW11RUrWA=='\n          crossorigin='anonymous' referrerpolicy='no-referrer'></script>\n      <script src='https://cdnjs.cloudflare.com/ajax/libs/materialize/1.0.0/js/materialize.min.js'></script>\n      <script src='https://cdnjs.cloudflare.com/ajax/libs/OwlCarousel2/2.2.1/owl.carousel.min.js'\n          integrity='sha512-lo4YgiwkxsVIJ5mex2b+VHUKlInSK2pFtkGFRzHsAL64/ZO5vaiCPmdGP3qZq1h9MzZzghrpDP336ScWugUMTg=='\n          crossorigin='anonymous' referrerpolicy='no-referrer'></script>\n      <script>\n          $(function () {\n              'use strict';\n      \n              $('.slide-show').owlCarousel({\n                  items: 1,\n                  navigation: true,\n                  slideSpeed: 1000,\n                  dots: true,\n                  paginationSpeed: 400,\n                  singleItem: true,\n                  autoplay: false,\n                  loop: true\n              });\n          });\n      </script>",
      "btnuselabel": false,
      "btntextlabel": "",
      "iconcolor": "black",
      "btncolor":"transparent",
      "btnlinkicon": "",
      "verticalpos": "top",
      "horizontalpos": "right",
      "btnnotiniframe": false,
      "tourtime": 0
  },
  "scope-lang": {
    "es-ES": {
      "codeLang": "",
      "btntextlabelLang": "",
      "btnlinkiconLang": ""
    },
    "en-US": {
      "codeLang": "",
      "btntextlabelLang": "",
      "btnlinkiconLang": ""
    }
  },
  "deps": [],
  "libs": [],
  "config": [
    {
        "type": "select",
        "key": "btnnotiniframe",
        "templateOptions": {
            "label": "activate close button",
            "options": [
                {"label": "Inactive", "name": "Inactive", "value": false},
                {"label": "Active","name": "Active", "value": true}
              ],
            "description": "If desactivated call closeFrame() in your code to close the tour"
        }
    },
    {
        "type": "textarea",
        "key": "code",
        "templateOptions": {
            "label": "Html code",
            "placeholder": "Write here your html code",
            "rows": 50,
            "grow": true,
            "required": true
        }
    },
    {
        "type": "checkbox",
        "key": "btnuselabel",
        "templateOptions": {
            "label": "Use text label",
            "description": "Mark this option to have text instead of close icon"
        }
    },
    {
        "type": "input",
        "key": "btntextlabel",
        "templateOptions": {
            "label": "Text label",
            "description": "If the option above is marked write here label. Default : Close"
        }
    },
    {
        "type": "input",
        "key": "btnlinkicon",
        "templateOptions": {
            "label": "URL of the icon",
            "description": "If this is empy the button will use the default close icon"
        }
    },
    {
        "type": "input",
        "key": "iconcolor",
        "templateOptions": {
            "label": "Color for close icon or text",
            "description": "Write the color, hexadecimal code or rgba"
        }
    },
    {
        "type": "input",
        "key": "btncolor",
        "templateOptions": {
            "label": "Background color for close button",
            "description": "Write the color, hexadecimal code or rgba"
        }
    },
    {
        "type": "select",
        "key": "verticalpos",
        "templateOptions": {
            "label": "Vertical position of the button",
            "options": [
                {"label": "Top", "name": "Top", "value": "top"},
                {"label": "Bottom", "name": "Bottom", "value": "bottom"}
              ],
            "description": "Select if the button will be show on top or botton of the screen"
        }
    },
    {
        "type": "select",
        "key": "horizontalpos",
        "templateOptions": {
            "label": "Horizontal position of the button",
            "options": [
                {"label": "Right","name": "Right", "value": "right"},
                {"label": "Left", "name": "Left", "value": "left"}
              ],
            "description": "Select if the button will be show on left or right of the screen"
        }
    },
    {
        "type": "input",
        "key": "tourtime",
        "templateOptions": {
            "type": "number",
            "label": "Days to show the tour again",
            "description": "Number of days the tour will be show after first time open, set in 0 wil be show every time the app is open"
        }
    }
  ],
  "config-lang": [
    {
        "type": "textarea",
        "key": "codeLang",
        "templateOptions": {
            "label": "Html code",
            "placeholder": "Write here your html code",
            "rows": 50,
            "grow": true,
            "required": true
        }
    },
    {
        "type": "input",
        "key": "btntextlabelLang",
        "templateOptions": {
            "label": "Text label",
            "description": "If the option above is marked write here label. Default : Close"
        }
    },
    {
        "type": "input",
        "key": "btnlinkiconLang",
        "templateOptions": {
            "label": "URL of the icon",
            "description": "If this is empy the button will use the default close icon"
        }
    }
  ],
  "showOn": {
      "menu": true,
      "market": true,
      "dragDrop": true
  },
  "images": {
      "list": "http://resources.kingofapp.com/services/tourbuilder/images/list.png",
      "screenshots": ["services/tourbuilder/images/screenshot01.png"],
      "popover": "http://resources.kingofapp.com/services/tourbuilder/images/popover.png",
      "banner": "http://resources.kingofapp.com/services/tourbuilder/images/banner.png",
      "logo": "http://resources.kingofapp.com/services/tourbuilder/images/logo.png"
  }
}